%YAML 1.1
%TAG !u! tag:unity3d.com,2011:
--- !u!1001 &100100000
Prefab:
  m_ObjectHideFlags: 1
  serializedVersion: 2
  m_Modification:
    m_TransformParent: {fileID: 0}
    m_Modifications: []
    m_RemovedComponents: []
  m_ParentPrefab: {fileID: 0}
  m_RootGameObject: {fileID: 1137862950867460}
  m_IsPrefabParent: 1
--- !u!1 &1137862950867460
GameObject:
  m_ObjectHideFlags: 0
  m_PrefabParentObject: {fileID: 0}
  m_PrefabInternal: {fileID: 100100000}
  serializedVersion: 5
  m_Component:
  - component: {fileID: 4222878570850984}
  - component: {fileID: 212844533433818900}
  - component: {fileID: 60547029569453392}
  - component: {fileID: 50782672176500430}
  m_Layer: 0
  m_Name: pipi
  m_TagString: Untagged
  m_Icon: {fileID: 0}
  m_NavMeshLayer: 0
  m_StaticEditorFlags: 0
  m_IsActive: 1
--- !u!4 &4222878570850984
Transform:
  m_ObjectHideFlags: 1
  m_PrefabParentObject: {fileID: 0}
  m_PrefabInternal: {fileID: 100100000}
  m_GameObject: {fileID: 1137862950867460}
  m_LocalRotation: {x: 0, y: 0, z: 0, w: 1}
  m_LocalPosition: {x: 0, y: 0, z: 0}
  m_LocalScale: {x: 0.5, y: 0.5, z: 0.5}
  m_Children: []
  m_Father: {fileID: 0}
  m_RootOrder: 0
  m_LocalEulerAnglesHint: {x: 0, y: 0, z: 0}
--- !u!50 &50782672176500430
Rigidbody2D:
  serializedVersion: 4
  m_ObjectHideFlags: 1
  m_PrefabParentObject: {fileID: 0}
  m_PrefabInternal: {fileID: 100100000}
  m_GameObject: {fileID: 1137862950867460}
  m_BodyType: 0
  m_Simulated: 0
  m_UseFullKinematicContacts: 0
  m_UseAutoMass: 0
  m_Mass: 1
  m_LinearDrag: 0.1
  m_AngularDrag: 0.01
  m_GravityScale: 1
  m_Material: {fileID: 0}
  m_Interpolate: 0
  m_SleepingMode: 1
  m_CollisionDetection: 0
  m_Constraints: 0
--- !u!60 &60547029569453392
PolygonCollider2D:
  m_ObjectHideFlags: 1
  m_PrefabParentObject: {fileID: 0}
  m_PrefabInternal: {fileID: 100100000}
  m_GameObject: {fileID: 1137862950867460}
  m_Enabled: 1
  m_Density: 1
  m_Material: {fileID: 0}
  m_IsTrigger: 0
  m_UsedByEffector: 0
  m_UsedByComposite: 0
  m_Offset: {x: 0, y: 0}
  m_SpriteTilingProperty:
    border: {x: 0, y: 0, z: 0, w: 0}
    pivot: {x: 0.5, y: 0.5}
    oldSize: {x: 2.56, y: 2.56}
    newSize: {x: 2.56, y: 2.56}
    adaptiveTilingThreshold: 0.5
    drawMode: 0
    adaptiveTiling: 0
  m_AutoTiling: 0
  m_Points:
    m_Paths:
    - - {x: 0.56, y: -0.81}
      - {x: 0.65999997, y: -0.84}
      - {x: 0.71999997, y: -0.75}
      - {x: 0.71, y: -0.65}
      - {x: 0.65999997, y: -0.59}
      - {x: 0.59999996, y: -0.55}
      - {x: 0.69, y: -0.48}
      - {x: 0.78999996, y: -0.32999998}
      - {x: 0.87, y: -0.31}
      - {x: 0.9, y: -0.22}
      - {x: 0.88, y: -0.03}
      - {x: 0.85999995, y: 0.13}
      - {x: 0.81, y: 0.17999999}
      - {x: 0.61, y: 0.31}
      - {x: 0.77, y: 0.39999998}
      - {x: 0.85999995, y: 0.35}
      - {x: 0.84, y: 0.21}
      - {x: 0.9, y: 0.12}
      - {x: 1.02, y: 0.12}
      - {x: 1.12, y: 0.17}
      - {x: 1.15, y: 0.19}
      - {x: 1.15, y: 0.32}
      - {x: 1.14, y: 0.39}
      - {x: 1.06, y: 0.63}
      - {x: 0.94, y: 0.72999996}
      - {x: 0.78, y: 0.81}
      - {x: 0.59, y: 0.77}
      - {x: 0.56, y: 0.82}
      - {x: 0.48, y: 0.84}
      - {x: 0.35, y: 0.7}
      - {x: 0.28, y: 0.69}
      - {x: 0.07, y: 0.79999995}
      - {x: -0.11, y: 0.79999995}
      - {x: -0.19, y: 0.81}
      - {x: -0.37, y: 0.84999996}
      - {x: -0.44, y: 0.94}
      - {x: -0.58, y: 0.94}
      - {x: -0.65, y: 0.90999997}
      - {x: -0.74, y: 0.84999996}
      - {x: -0.7, y: 0.71}
      - {x: -0.75, y: 0.59999996}
      - {x: -0.88, y: 0.48}
      - {x: -0.96999997, y: 0.35}
      - {x: -1.1, y: 0.11}
      - {x: -1.1899999, y: -0.03}
      - {x: -1.1899999, y: -0.089999996}
      - {x: -1.14, y: -0.13}
      - {x: -0.98999995, y: -0.12}
      - {x: -0.91999996, y: -0.14}
      - {x: -0.90999997, y: -0.37}
      - {x: -0.85999995, y: -0.47}
      - {x: -0.79999995, y: -0.55}
      - {x: -0.71999997, y: -0.62}
      - {x: -0.45999998, y: -0.59}
      - {x: -0.39999998, y: -0.53}
      - {x: -0.32999998, y: -0.55}
      - {x: -0.22999999, y: -0.64}
      - {x: 0.03, y: -0.7}
      - {x: -0.049999997, y: -0.75}
      - {x: -0.02, y: -0.88}
      - {x: 0.14999999, y: -0.88}
      - {x: 0.21, y: -0.79999995}
      - {x: 0.26, y: -0.68}
      - {x: 0.48, y: -0.71}
    - - {x: -0.57, y: -0.14999999}
      - {x: -0.59, y: -0.14}
      - {x: -0.55, y: -0.19}
      - {x: -0.52, y: -0.22999999}
      - {x: -0.51, y: -0.22}
    - - {x: -0.74, y: 0.07}
      - {x: -0.75, y: 0.06}
--- !u!212 &212844533433818900
SpriteRenderer:
  m_ObjectHideFlags: 1
  m_PrefabParentObject: {fileID: 0}
  m_PrefabInternal: {fileID: 100100000}
  m_GameObject: {fileID: 1137862950867460}
  m_Enabled: 1
  m_CastShadows: 0
  m_ReceiveShadows: 0
  m_DynamicOccludee: 1
  m_MotionVectors: 1
  m_LightProbeUsage: 1
  m_ReflectionProbeUsage: 1
  m_Materials:
  - {fileID: 10754, guid: 0000000000000000f000000000000000, type: 0}
  m_StaticBatchInfo:
    firstSubMesh: 0
    subMeshCount: 0
  m_StaticBatchRoot: {fileID: 0}
  m_ProbeAnchor: {fileID: 0}
  m_LightProbeVolumeOverride: {fileID: 0}
  m_ScaleInLightmap: 1
  m_PreserveUVs: 0
  m_IgnoreNormalsForChartDetection: 0
  m_ImportantGI: 0
  m_StitchLightmapSeams: 0
  m_SelectedEditorRenderState: 0
  m_MinimumChartSize: 4
  m_AutoUVMaxDistance: 0.5
  m_AutoUVMaxAngle: 89
  m_LightmapParameters: {fileID: 0}
  m_SortingLayerID: 0
  m_SortingLayer: 0
  m_SortingOrder: 0
  m_Sprite: {fileID: 21300000, guid: 3313045ae2c877f45bf288fc9d785784, type: 3}
  m_Color: {r: 1, g: 1, b: 1, a: 1}
  m_FlipX: 0
  m_FlipY: 0
  m_DrawMode: 0
  m_Size: {x: 2.56, y: 2.56}
  m_AdaptiveModeThreshold: 0.5
  m_SpriteTileMode: 0
  m_WasSpriteAssigned: 1
  m_MaskInteraction: 0
